{
  "data": [
    {
      "created_at": "2018-01-01T00:00:00.000000Z",
      "customer_reference": "MY REF 001",
      "id": "12ade33a-21c0-473b-b055-b3c836e1c292",
      "phone_numbers": [
        {
          "created_at": "2018-01-01T00:00:00.000000Z",
          "expired_at": "2018-01-01T00:00:00.000000Z",
          "id": "12ade33a-21c0-473b-b055-b3c836e1c292",
          "phone_number": "+19705555098",
          "record_type": "reserved_phone_number",
          "status": "pending",
          "updated_at": "2018-01-01T00:00:00.000000Z"
        }
      ],
      "record_type": "number_reservation",
      "status": "pending",
      "updated_at": "2018-01-01T00:00:00.000000Z"
    }
  ],
  "meta": {
    "page_number": 2,
    "page_size": 25,
    "total_pages": 3,
    "total_results": 55
  }
}