{
  "data": [
    {
      "created_at": "2018-02-02T22:25:27.521Z",
      "iccid": "89310410106543789301",
      "id": "6a09cdc3-8948-47f0-aa62-74ac943d6c58",
      "imsi": 81932214823362980,
      "msisdn": "+13109976224",
      "record_type": "sim_card",
      "sim_card_group_id": "6a09cdc3-8948-47f0-aa62-74ac943d6c58",
      "status": "enabled",
      "tags": [
        "personal",
        "customers",
        "active-customers"
      ],
      "updated_at": "2018-02-02T22:25:27.521Z"
    }
  ],
  "meta": {
    "page_number": 2,
    "page_size": 25,
    "total_pages": 3,
    "total_results": 55
  }
}